<?xml version="1.0" encoding="UTF-8" standalone="no" ?>
<COLLADA xmlns="http://www.collada.org/2005/11/COLLADASchema" version="1.4.1">
    <asset>
        <contributor>
            <authoring_tool>SketchUp 17.1.174</authoring_tool>
        </contributor>
        <created>2017-01-15T14:14:50Z</created>
        <modified>2017-01-15T14:14:50Z</modified>
        <unit meter="0.0254" name="inch" />
        <up_axis>Z_UP</up_axis>
    </asset>
    <library_cameras>
        <camera id="ID1" name="skp_camera_Last_Saved_SketchUp_View">
            <optics>
                <technique_common>
                    <perspective>
                        <yfov>35</yfov>
                        <aspect_ratio>0</aspect_ratio>
                        <znear>1</znear>
                        <zfar>1000</zfar>
                    </perspective>
                </technique_common>
            </optics>
        </camera>
    </library_cameras>
    <library_visual_scenes>
        <visual_scene id="ID2">
            <node name="SketchUp">
                <instance_geometry url="#ID3">
                    <bind_material>
                        <technique_common>
                            <instance_material symbol="Material2" target="#ID5">
                                <bind_vertex_input semantic="UVSET0" input_semantic="TEXCOORD" input_set="0" />
                            </instance_material>
                        </technique_common>
                    </bind_material>
                </instance_geometry>
                <node name="skp_camera_Last_Saved_SketchUp_View">
                    <matrix>-0.7071068 -0.2357023 0.6666667 684.6178 0.7071068 -0.2357023 0.6666667 766.1079 0 0.942809 0.3333333 346.1443 0 0 0 1</matrix>
                    <instance_camera url="#ID1" />
                </node>
            </node>
        </visual_scene>
    </library_visual_scenes>
    <library_geometries>
        <geometry id="ID3">
            <mesh>
                <source id="ID6">
                    <float_array id="ID9" count="90">150 501.9685 0 0 0 0 0 501.9685 0 150 0 0 154.7244 0 177.1654 0 0 0 150 0 0 -5.511811 0 177.1654 74.6063 0 224.0157 -5.511811 501.9685 177.1654 0 0 0 -5.511811 0 177.1654 0 501.9685 0 -5.511811 501.9685 177.1654 150 501.9685 0 0 501.9685 0 154.7244 501.9685 177.1654 74.6063 501.9685 224.0157 150 501.9685 0 154.7244 0 177.1654 150 0 0 154.7244 501.9685 177.1654 154.7244 0 177.1654 74.6063 501.9685 224.0157 74.6063 0 224.0157 154.7244 501.9685 177.1654 74.6063 0 224.0157 -5.511811 501.9685 177.1654 -5.511811 0 177.1654 74.6063 501.9685 224.0157</float_array>
                    <technique_common>
                        <accessor count="30" source="#ID9" stride="3">
                            <param name="X" type="float" />
                            <param name="Y" type="float" />
                            <param name="Z" type="float" />
                        </accessor>
                    </technique_common>
                </source>
                <source id="ID7">
                    <float_array id="ID10" count="90">0 0 -1 0 0 -1 0 0 -1 0 0 -1 0 -1 0 0 -1 0 0 -1 0 0 -1 0 0 -1 0 -0.9995164 0 -0.03109607 -0.9995164 0 -0.03109607 -0.9995164 0 -0.03109607 -0.9995164 0 -0.03109607 -0 1 -0 -0 1 -0 -0 1 -0 -0 1 -0 -0 1 -0 0.9996446 -0 -0.02665719 0.9996446 -0 -0.02665719 0.9996446 -0 -0.02665719 0.9996446 -0 -0.02665719 0.5047939 -0 0.8632399 0.5047939 -0 0.8632399 0.5047939 -0 0.8632399 0.5047939 -0 0.8632399 -0.5047939 -0 0.8632399 -0.5047939 -0 0.8632399 -0.5047939 -0 0.8632399 -0.5047939 -0 0.8632399</float_array>
                    <technique_common>
                        <accessor count="30" source="#ID10" stride="3">
                            <param name="X" type="float" />
                            <param name="Y" type="float" />
                            <param name="Z" type="float" />
                        </accessor>
                    </technique_common>
                </source>
                <vertices id="ID8">
                    <input semantic="POSITION" source="#ID6" />
                    <input semantic="NORMAL" source="#ID7" />
                </vertices>
                <triangles count="16" material="Material2">
                    <input offset="0" semantic="VERTEX" source="#ID8" />
                    <p>0 1 2 1 0 3 4 5 6 5 4 7 7 4 8 9 10 11 10 9 12 13 14 15 14 13 16 16 13 17 18 19 20 19 18 21 22 23 24 23 22 25 26 27 28 27 26 29</p>
                </triangles>
            </mesh>
        </geometry>
    </library_geometries>
    <library_materials>
        <material id="ID5" name="material">
            <instance_effect url="#ID4" />
        </material>
    </library_materials>
    <library_effects>
        <effect id="ID4">
            <profile_COMMON>
                <technique sid="COMMON">
                    <lambert>
                        <diffuse>
                            <color>1 1 1 1</color>
                        </diffuse>
                    </lambert>
                </technique>
            </profile_COMMON>
        </effect>
    </library_effects>
    <scene>
        <instance_visual_scene url="#ID2" />
    </scene>
</COLLADA>
