Determining if the pthread_create exist failed with the following output:
Change Dir: /home/alessandro/catkin_ws/build/gazebo_tutorials/CMakeFiles/CMakeTmp

Run Build Command:"/usr/bin/make" "cmTC_c280c/fast"
/usr/bin/make -f CMakeFiles/cmTC_c280c.dir/build.make CMakeFiles/cmTC_c280c.dir/build
make[1]: ingresso nella directory "/home/alessandro/catkin_ws/build/gazebo_tutorials/CMakeFiles/CMakeTmp"
Building C object CMakeFiles/cmTC_c280c.dir/CheckSymbolExists.c.o
/usr/bin/cc     -o CMakeFiles/cmTC_c280c.dir/CheckSymbolExists.c.o   -c /home/alessandro/catkin_ws/build/gazebo_tutorials/CMakeFiles/CMakeTmp/CheckSymbolExists.c
Linking C executable cmTC_c280c
/usr/bin/cmake -E cmake_link_script CMakeFiles/cmTC_c280c.dir/link.txt --verbose=1
/usr/bin/cc       CMakeFiles/cmTC_c280c.dir/CheckSymbolExists.c.o  -o cmTC_c280c -rdynamic 
CMakeFiles/cmTC_c280c.dir/CheckSymbolExists.c.o: nella funzione "main":
CheckSymbolExists.c:(.text+0x16): riferimento non definito a "pthread_create"
collect2: error: ld returned 1 exit status
CMakeFiles/cmTC_c280c.dir/build.make:97: set di istruzioni per l'obiettivo "cmTC_c280c" non riuscito
make[1]: *** [cmTC_c280c] Errore 1
make[1]: uscita dalla directory "/home/alessandro/catkin_ws/build/gazebo_tutorials/CMakeFiles/CMakeTmp"
Makefile:126: set di istruzioni per l'obiettivo "cmTC_c280c/fast" non riuscito
make: *** [cmTC_c280c/fast] Errore 2

File /home/alessandro/catkin_ws/build/gazebo_tutorials/CMakeFiles/CMakeTmp/CheckSymbolExists.c:
/* */
#include <pthread.h>

int main(int argc, char** argv)
{
  (void)argv;
#ifndef pthread_create
  return ((int*)(&pthread_create))[argc];
#else
  (void)argc;
  return 0;
#endif
}

Determining if the function pthread_create exists in the pthreads failed with the following output:
Change Dir: /home/alessandro/catkin_ws/build/gazebo_tutorials/CMakeFiles/CMakeTmp

Run Build Command:"/usr/bin/make" "cmTC_f7c3a/fast"
/usr/bin/make -f CMakeFiles/cmTC_f7c3a.dir/build.make CMakeFiles/cmTC_f7c3a.dir/build
make[1]: ingresso nella directory "/home/alessandro/catkin_ws/build/gazebo_tutorials/CMakeFiles/CMakeTmp"
Building C object CMakeFiles/cmTC_f7c3a.dir/CheckFunctionExists.c.o
/usr/bin/cc    -DCHECK_FUNCTION_EXISTS=pthread_create   -o CMakeFiles/cmTC_f7c3a.dir/CheckFunctionExists.c.o   -c /usr/share/cmake-3.5/Modules/CheckFunctionExists.c
Linking C executable cmTC_f7c3a
/usr/bin/cmake -E cmake_link_script CMakeFiles/cmTC_f7c3a.dir/link.txt --verbose=1
/usr/bin/cc   -DCHECK_FUNCTION_EXISTS=pthread_create    CMakeFiles/cmTC_f7c3a.dir/CheckFunctionExists.c.o  -o cmTC_f7c3a -rdynamic -lpthreads 
/usr/bin/ld: impossibile trovare -lpthreads
collect2: error: ld returned 1 exit status
CMakeFiles/cmTC_f7c3a.dir/build.make:97: set di istruzioni per l'obiettivo "cmTC_f7c3a" non riuscito
make[1]: *** [cmTC_f7c3a] Errore 1
make[1]: uscita dalla directory "/home/alessandro/catkin_ws/build/gazebo_tutorials/CMakeFiles/CMakeTmp"
Makefile:126: set di istruzioni per l'obiettivo "cmTC_f7c3a/fast" non riuscito
make: *** [cmTC_f7c3a/fast] Errore 2


