Linked: (/home/alessandro/catkin_ws/devel/.private/gazebo_tutorials/share/gazebo_tutorials/cmake/gazebo_tutorialsConfig.cmake, /home/alessandro/catkin_ws/devel/share/gazebo_tutorials/cmake/gazebo_tutorialsConfig.cmake)
Linked: (/home/alessandro/catkin_ws/devel/.private/gazebo_tutorials/share/gazebo_tutorials/cmake/gazebo_tutorialsConfig-version.cmake, /home/alessandro/catkin_ws/devel/share/gazebo_tutorials/cmake/gazebo_tutorialsConfig-version.cmake)
Linked: (/home/alessandro/catkin_ws/devel/.private/gazebo_tutorials/lib/libgazebo_tutorials.so, /home/alessandro/catkin_ws/devel/lib/libgazebo_tutorials.so)
Linked: (/home/alessandro/catkin_ws/devel/.private/gazebo_tutorials/lib/pkgconfig/gazebo_tutorials.pc, /home/alessandro/catkin_ws/devel/lib/pkgconfig/gazebo_tutorials.pc)
