<?xml version="1.0"?>
<sdf version='1.6'>
  <world name='default'>
    <include>
      <uri>model://ground_plane</uri>
    </include>
    <include>
      <uri>model://sun</uri>
    </include>
    <include>
      <uri>../drone_con_braccio</uri>
    </include>
  </world>
</sdf>
