Linked: (/home/alessandro/catkin_ws/devel/.private/iris_with_standoffs_description/share/iris_with_standoffs_description/cmake/iris_with_standoffs_descriptionConfig.cmake, /home/alessandro/catkin_ws/devel/share/iris_with_standoffs_description/cmake/iris_with_standoffs_descriptionConfig.cmake)
Linked: (/home/alessandro/catkin_ws/devel/.private/iris_with_standoffs_description/share/iris_with_standoffs_description/cmake/iris_with_standoffs_descriptionConfig-version.cmake, /home/alessandro/catkin_ws/devel/share/iris_with_standoffs_description/cmake/iris_with_standoffs_descriptionConfig-version.cmake)
Linked: (/home/alessandro/catkin_ws/devel/.private/iris_with_standoffs_description/lib/pkgconfig/iris_with_standoffs_description.pc, /home/alessandro/catkin_ws/devel/lib/pkgconfig/iris_with_standoffs_description.pc)
